{
	"module": {
		"systemtype": {
			"value": "1"
		},
		"name": {
			"value": "Config"
		},
		"menuitem": {
			"value": "Конфигурация"
		},
		"description": {
			"value": "Управление конфигурациями"
		},
		"version": {
			"value": "2.2"
		},
		"module_package": {
			"value": "admin/libs/modules/Config/ModuleMngr.pm"
		},
		"module_include": {
		},
		"startaction": {
			"value": "admmain"
		},
		"startfunction": {
			"value": "CFG_startpage"
		},
		"staticsitemap": {
			"value": "sitemap_static.xml"
		},
		"configuration": {
			"tankfile": {
				"value": "conf/system/install.tnk"
			},
			"indexfile": {
			},
			"datafile": {
			},
			"settings": {
				"servername": {
					"label": "Имя сервера, на котором работает экземпляр Pheix",
					"value": "pheix.org"
				},
				"workviaproto": {
					"toggle": "multi",
					"togglelabels": "HTTP;HTTPS",
					"label": "Pheix работает на сервере с",
					"value": "0"
				},
				"dynasitemap": {
					"toggle": "true",
					"label": "Использовать динамическую карту сайта (sitemap)",
					"value": "1"
				},
				"apopheoznews": {
					"toggle": "true",
					"label": "Показывать боковую панель с новостями сайта apopheoz.ru",
					"value": "1"
				},
				"pageseotags1": {
					"label": "Набор SEO-тегов для страницы index",
					"action": "index",
					"group": {
						"title": {
							"label": "title",
							"value": "Hello, world! I'm working ;-)"
						},
						"metadescr": {
							"label": "meta.description",
							"value": "Welcome to index page"
						},
						"metakeywords": {
							"label": "meta.keywords",
							"value": "index page, home page, information about site, wekcome"
						}
					}
				},
				"pageseotags2": {
					"label": "Набор SEO-тегов для страницы 404",
					"action": "404",
					"group": {
						"title": {
							"label": "title",
							"value": "Error 404 — page not found!"
						},
						"metadescr": {
							"label": "meta.description",
							"value": "Error 404: requested page could not be found. Please try another one."
						},
						"metakeywords": {
							"label": "meta.keywords",
							"value": "404, page not found, missed page, error 404, error"
						}
					}
				}
			}
		}
	}
}
