{
	"module": {
		"systemtype": {
			"value": "0"
		},
		"hidden": {
			"value": "yes"
		},
		"name": {
			"value": "Shopcat"
		},
		"menuitem": {
			"value": "Управление каталогом"
		},
		"description": {
			"value": "Управление разделом «Каталог»"
		},
		"version": {
			"value": "2.11"
		},
		"module_package": {
			"value": "admin/libs/modules/Shopcat/V3.pm"
		},
		"module_include": {
			"value": "admin/libs/modules/Shopcat/V3.pl"
		},
		"use_identifier": {
			"value": "Shopcat::V3"
		},
		"startaction": {
			"value": "admshopcat2"
		},
		"startfunction": {
			"value": "Shopcat::V3::show_shopcat2_startpage();"
		},
		"configuration": {
			"tankfile": {
				"value": "conf/system/shopcat2.tnk"
			},
			"indexfile": {
			},
			"datafile": {
			},
			"settings": {
				"usefilters": {
					"toggle": "true",
					"label": "Распознавать фильтры при загрузке файла каталога",
					"value": "1"
				},
				"hideblockscatlev": {
					"label": "Политика отображения блоков на карточке категории",
					"size": "6",
					"action": "shopcatshowblockscat",
					"group": {
						"catid": {
							"toggle": "true",
							"label": "Скрывать идентификатор",
							"value": "1"
						},
						"posnum": {
							"toggle": "true",
							"label": "Скрывать количество позиций в категории",
							"value": "0"
						},
						"info": {
							"toggle": "true",
							"label": "Скрывать информацию",
							"value": "0"
						},
						"specs": {
							"toggle": "true",
							"label": "Скрывать характеристики",
							"value": "1"
						},
						"video": {
							"toggle": "true",
							"label": "Скрывать видео",
							"value": "1"
						},
						"files": {
							"toggle": "true",
							"label": "Скрывать файлы",
							"value": "1"
						}
					}
				},
				"hideblocksposlev": {
					"label": "Политика отображения блоков на карточке позиции",
					"size": "6",
					"action": "shopcatshowblockspos",
					"group": {
						"artikul": {
							"toggle": "true",
							"label": "Скрывать артикул",
							"value": "1"
						},
						"price": {
							"toggle": "true",
							"label": "Скрывать цену",
							"value": "1"
						},
						"info": {
							"toggle": "true",
							"label": "Скрывать информацию",
							"value": "0"
						},
						"params": {
							"toggle": "true",
							"label": "Скрывать характеристики",
							"value": "1"
						},
						"analogs": {
							"toggle": "true",
							"label": "Скрывать аналоги",
							"value": "1"
						},
						"files": {
							"toggle": "true",
							"label": "Скрывать файлы",
							"value": "1"
						}
					}
				},
				"filters": {
					"label": "Список фильтров — установите 0, чтобы скрыть заданный фильтр в пользовательской части",
					"action": "shopcatfilters",
					"size": "12",
					"group": {
						"filter-01": {
							"label": "Название фильтра #1",
							"parametrizedindex": "1",
							"value": "Фильтр #01"
						},
						"filter-02": {
							"label": "Название фильтра #2",
							"parametrizedindex": "2",
							"value": "Фильтр #02"
						},
						"filter-03": {
							"label": "Название фильтра #3",
							"parametrizedindex": "3",
							"value": "Фильтр #03"
						},
						"filter-04": {
							"label": "Название фильтра #4",
							"parametrizedindex": "4",
							"value": "Фильтр #04"
						},
						"filter-05": {
							"label": "Название фильтра #5",
							"value": "0"
						},
						"filter-06": {
							"label": "Название фильтра #6",
							"value": "0"
						},
						"filter-07": {
							"label": "Название фильтра #7",
							"value": "0"
						},
						"filter-08": {
							"label": "Название фильтра #8",
							"value": "0"
						},
						"filter-09": {
							"label": "Название фильтра #9",
							"value": "0"
						},
						"filter-10": {
							"label": "Название фильтра #10",
							"value": "0"
						},
						"filter-11": {
							"label": "Название фильтра #11",
							"value": "0"
						},
						"filter-12": {
							"label": "Название фильтра #12",
							"value": "0"
						}
					}
				},
				"filterblocks": {
					"label": "Политика показа блоков N-1 и N уровней каталога",
					"size": "5",
					"action": "shopcatshowblockpolicy",
					"group": {
						"information": {
							"label": "Показывать блок «Информация» при установленном фильтре",
							"value": "filter-01"
						},
						"primenenie": {
							"label": "Показывать блок «Характеристики» при установленном фильтре",
							"value": "filter-02"
						},
						"files": {
							"label": "Показывать блок «Файлы» при установленном фильтре",
							"value": "filter-03"
						},
						"video": {
							"label": "Показывать блок «Видео» при установленном фильтре",
							"value": "filter-04"
						},
						"analogs": {
							"label": "Показывать блок «Аналоги» при установленном фильтре",
							"value": "filter-05"
						}
					}
				}
			}
		}
	}
}
